EESchema Schematic File Version 4
EELAYER 30 0
EELAYER END
$Descr A4 11693 8268
encoding utf-8
Sheet 1 1
Title ""
Date ""
Rev ""
Comp ""
Comment1 ""
Comment2 ""
Comment3 ""
Comment4 ""
$EndDescr
$Comp
L Connector:Conn_01x08_Female GY-521
U 1 1 61EA6E6A
P 3700 2500
F 0 "GY-521" H 3592 1875 50  0000 C CNN
F 1 "Conn_01x08_Female" H 3592 1966 50  0000 C CNN
F 2 "Connector_PinHeader_2.54mm:PinHeader_1x08_P2.54mm_Vertical" H 3700 2500 50  0001 C CNN
F 3 "~" H 3700 2500 50  0001 C CNN
	1    3700 2500
	-1   0    0    1   
$EndComp
$Comp
L Connector:Conn_01x02_Female Vin_Nano1
U 1 1 61EA9046
P 4200 4500
F 0 "Vin_Nano1" H 4092 4685 50  0000 C CNN
F 1 "Conn_01x02_Female" H 4092 4594 50  0000 C CNN
F 2 "Connector_PinSocket_2.54mm:PinSocket_1x02_P2.54mm_Vertical" H 4200 4500 50  0001 C CNN
F 3 "~" H 4200 4500 50  0001 C CNN
	1    4200 4500
	-1   0    0    -1  
$EndComp
$Comp
L MCU_Module:Arduino_Nano_v3.x A1
U 1 1 61EB8122
P 5400 3200
F 0 "A1" H 5400 1800 50  0000 C CNN
F 1 "Arduino_Nano_v3.x" H 5400 1900 50  0000 C CNN
F 2 "Module:Arduino_Nano" H 5550 2250 50  0001 L CNN
F 3 "http://www.mouser.com/pdfdocs/Gravitech_Arduino_Nano3_0.pdf" H 5400 2200 50  0001 C CNN
	1    5400 3200
	-1   0    0    1   
$EndComp
$Comp
L Device:R R1
U 1 1 61EBCC4F
P 6500 4900
F 0 "R1" V 6293 4900 50  0000 C CNN
F 1 "10k" V 6384 4900 50  0000 C CNN
F 2 "Resistor_THT:R_Axial_DIN0309_L9.0mm_D3.2mm_P15.24mm_Horizontal" V 6430 4900 50  0001 C CNN
F 3 "~" H 6500 4900 50  0001 C CNN
	1    6500 4900
	0    1    1    0   
$EndComp
$Comp
L Device:R R2
U 1 1 61EBD722
P 6500 5400
F 0 "R2" V 6293 5400 50  0000 C CNN
F 1 "10k" V 6384 5400 50  0000 C CNN
F 2 "Resistor_THT:R_Axial_DIN0309_L9.0mm_D3.2mm_P15.24mm_Horizontal" V 6430 5400 50  0001 C CNN
F 3 "~" H 6500 5400 50  0001 C CNN
	1    6500 5400
	0    1    1    0   
$EndComp
$Comp
L Device:R R3
U 1 1 61EBD928
P 6500 5900
F 0 "R3" V 6293 5900 50  0000 C CNN
F 1 "10k" V 6384 5900 50  0000 C CNN
F 2 "Resistor_THT:R_Axial_DIN0309_L9.0mm_D3.2mm_P15.24mm_Horizontal" V 6430 5900 50  0001 C CNN
F 3 "~" H 6500 5900 50  0001 C CNN
	1    6500 5900
	0    1    1    0   
$EndComp
$Comp
L power:GND #PWR02
U 1 1 61EBDA1F
P 4500 4700
F 0 "#PWR02" H 4500 4450 50  0001 C CNN
F 1 "GND" H 4505 4527 50  0000 C CNN
F 2 "" H 4500 4700 50  0001 C CNN
F 3 "" H 4500 4700 50  0001 C CNN
	1    4500 4700
	1    0    0    -1  
$EndComp
$Comp
L power:GND #PWR03
U 1 1 61ED0EF6
P 5600 2000
F 0 "#PWR03" H 5600 1750 50  0001 C CNN
F 1 "GND" H 5605 1827 50  0000 C CNN
F 2 "" H 5600 2000 50  0001 C CNN
F 3 "" H 5600 2000 50  0001 C CNN
	1    5600 2000
	1    0    0    -1  
$EndComp
$Comp
L power:GND #PWR04
U 1 1 61ED1520
P 6800 5000
F 0 "#PWR04" H 6800 4750 50  0001 C CNN
F 1 "GND" H 6805 4827 50  0000 C CNN
F 2 "" H 6800 5000 50  0001 C CNN
F 3 "" H 6800 5000 50  0001 C CNN
	1    6800 5000
	1    0    0    -1  
$EndComp
$Comp
L power:GND #PWR05
U 1 1 61ED16A6
P 6800 5500
F 0 "#PWR05" H 6800 5250 50  0001 C CNN
F 1 "GND" H 6805 5327 50  0000 C CNN
F 2 "" H 6800 5500 50  0001 C CNN
F 3 "" H 6800 5500 50  0001 C CNN
	1    6800 5500
	1    0    0    -1  
$EndComp
$Comp
L power:GND #PWR06
U 1 1 61ED16D4
P 6800 6000
F 0 "#PWR06" H 6800 5750 50  0001 C CNN
F 1 "GND" H 6805 5827 50  0000 C CNN
F 2 "" H 6800 6000 50  0001 C CNN
F 3 "" H 6800 6000 50  0001 C CNN
	1    6800 6000
	1    0    0    -1  
$EndComp
Wire Wire Line
	3900 2100 4400 2100
Wire Wire Line
	4500 4600 4500 4700
Wire Wire Line
	6700 3600 6700 3200
Connection ~ 6700 3600
Wire Wire Line
	7000 3600 6700 3600
Wire Wire Line
	6700 3200 6700 2800
Connection ~ 6700 3200
Wire Wire Line
	7000 3200 6700 3200
Wire Wire Line
	6700 2800 6700 2100
Connection ~ 6700 2800
Wire Wire Line
	7000 2800 6700 2800
Wire Wire Line
	6700 2100 7000 2100
Wire Wire Line
	6700 4000 6700 3600
Wire Wire Line
	7000 4000 6900 4000
Connection ~ 6900 3400
Wire Wire Line
	6900 3800 7000 3800
Wire Wire Line
	6900 3400 6900 3800
Connection ~ 6900 3000
Wire Wire Line
	6900 3400 7000 3400
Wire Wire Line
	6900 3000 6900 3400
Connection ~ 6900 2600
Wire Wire Line
	6900 3000 7000 3000
Wire Wire Line
	6900 2600 6900 3000
Wire Wire Line
	6900 2600 7000 2600
Wire Wire Line
	6900 2200 6900 2600
Wire Wire Line
	7000 2200 6900 2200
Wire Wire Line
	7000 2700 5900 2700
$Comp
L Connector:Conn_01x02_Female Vin_LED_Strip1
U 1 1 61EAAC8C
P 7200 2200
F 0 "Vin_LED_Strip1" H 7092 1875 50  0000 C CNN
F 1 "Conn_01x02_Female" H 7092 1966 50  0000 C CNN
F 2 "Connector_PinSocket_2.54mm:PinSocket_1x02_P2.54mm_Vertical" H 7200 2200 50  0001 C CNN
F 3 "~" H 7200 2200 50  0001 C CNN
	1    7200 2200
	1    0    0    1   
$EndComp
$Comp
L Connector:Conn_01x03_Female LED_Strip3
U 1 1 61EA6851
P 7200 3900
F 0 "LED_Strip3" H 7228 3926 50  0000 L CNN
F 1 "Conn_01x03_Female" H 7228 3835 50  0000 L CNN
F 2 "Connector_PinHeader_2.54mm:PinHeader_1x03_P2.54mm_Vertical" H 7200 3900 50  0001 C CNN
F 3 "~" H 7200 3900 50  0001 C CNN
	1    7200 3900
	1    0    0    -1  
$EndComp
$Comp
L Connector:Conn_01x03_Female LED_Strip2
U 1 1 61EA6510
P 7200 3500
F 0 "LED_Strip2" H 7228 3526 50  0000 L CNN
F 1 "Conn_01x03_Female" H 7228 3435 50  0000 L CNN
F 2 "Connector_PinHeader_2.54mm:PinHeader_1x03_P2.54mm_Vertical" H 7200 3500 50  0001 C CNN
F 3 "~" H 7200 3500 50  0001 C CNN
	1    7200 3500
	1    0    0    -1  
$EndComp
$Comp
L Connector:Conn_01x03_Female LED_Strip1
U 1 1 61EA5E2F
P 7200 3100
F 0 "LED_Strip1" H 7228 3126 50  0000 L CNN
F 1 "Conn_01x03_Female" H 7228 3035 50  0000 L CNN
F 2 "Connector_PinHeader_2.54mm:PinHeader_1x03_P2.54mm_Vertical" H 7200 3100 50  0001 C CNN
F 3 "~" H 7200 3100 50  0001 C CNN
	1    7200 3100
	1    0    0    -1  
$EndComp
$Comp
L Connector:Conn_01x03_Female LED_Strip4
U 1 1 61E96A6C
P 7200 2700
F 0 "LED_Strip4" H 7228 2726 50  0000 L CNN
F 1 "Conn_01x03_Female" H 7228 2635 50  0000 L CNN
F 2 "Connector_PinHeader_2.54mm:PinHeader_1x03_P2.54mm_Vertical" H 7200 2700 50  0001 C CNN
F 3 "~" H 7200 2700 50  0001 C CNN
	1    7200 2700
	1    0    0    -1  
$EndComp
Wire Wire Line
	5900 2800 6600 2800
Wire Wire Line
	6600 2800 6600 3100
Wire Wire Line
	6600 3100 7000 3100
Wire Wire Line
	5900 2900 6500 2900
Wire Wire Line
	6500 2900 6500 3500
Wire Wire Line
	6500 3500 7000 3500
Wire Wire Line
	5900 3200 6400 3200
Wire Wire Line
	6400 3200 6400 3900
Wire Wire Line
	6400 3900 7000 3900
Wire Wire Line
	6100 4900 6350 4900
Wire Wire Line
	6800 4900 6800 5000
Wire Wire Line
	6650 4900 6800 4900
Wire Wire Line
	6800 5500 6800 5400
Wire Wire Line
	6800 5400 6650 5400
Wire Wire Line
	6350 5400 6200 5400
Wire Wire Line
	6800 5900 6800 6000
Wire Wire Line
	6650 5900 6800 5900
Wire Wire Line
	5500 4500 5500 4200
Wire Wire Line
	6100 4900 6100 3600
Wire Wire Line
	6100 3600 5900 3600
Wire Wire Line
	6200 5400 6200 5200
Wire Wire Line
	6200 3500 5900 3500
Wire Wire Line
	6300 5900 6300 3400
Wire Wire Line
	6300 3400 5900 3400
Connection ~ 6300 5900
Wire Wire Line
	6300 5900 6350 5900
Wire Wire Line
	5600 2000 5400 2000
Wire Wire Line
	5400 2000 5400 2200
$Comp
L power:GND #PWR01
U 1 1 61F0FE75
P 4300 2200
F 0 "#PWR01" H 4300 1950 50  0001 C CNN
F 1 "GND" H 4305 2027 50  0000 C CNN
F 2 "" H 4300 2200 50  0001 C CNN
F 3 "" H 4300 2200 50  0001 C CNN
	1    4300 2200
	1    0    0    -1  
$EndComp
Wire Wire Line
	5200 4200 5200 4300
Wire Wire Line
	4400 4300 4900 4300
Wire Wire Line
	4400 2100 4400 4300
Wire Wire Line
	3900 2200 4300 2200
Wire Wire Line
	3900 2300 4100 2300
Wire Wire Line
	4100 2300 4100 2700
Wire Wire Line
	4100 2700 4900 2700
Wire Wire Line
	3900 2400 4000 2400
Wire Wire Line
	4000 2400 4000 2800
Wire Wire Line
	4000 2800 4900 2800
$Comp
L Connector:Conn_01x02_Female SW_Frontlicht1
U 1 1 61F2912A
P 5300 5600
F 0 "SW_Frontlicht1" H 5328 5576 50  0000 L CNN
F 1 "Conn_01x02_Female" H 5328 5485 50  0000 L CNN
F 2 "Connector_PinSocket_2.54mm:PinSocket_1x02_P2.54mm_Vertical" H 5300 5600 50  0001 C CNN
F 3 "~" H 5300 5600 50  0001 C CNN
	1    5300 5600
	1    0    0    -1  
$EndComp
Wire Wire Line
	5100 5900 5100 5700
Wire Wire Line
	5100 5900 6300 5900
Wire Wire Line
	5100 5600 4900 5600
Connection ~ 4900 4300
Wire Wire Line
	4900 4300 5200 4300
Wire Wire Line
	4400 4600 4500 4600
Wire Wire Line
	4400 4500 5500 4500
$Comp
L power:GND #PWR0101
U 1 1 61F6AC6F
P 5100 2100
F 0 "#PWR0101" H 5100 1850 50  0001 C CNN
F 1 "GND" H 5105 1927 50  0000 C CNN
F 2 "" H 5100 2100 50  0001 C CNN
F 3 "" H 5100 2100 50  0001 C CNN
	1    5100 2100
	1    0    0    -1  
$EndComp
Wire Wire Line
	5300 2200 5300 2000
Wire Wire Line
	5300 2000 5100 2000
Wire Wire Line
	5100 2000 5100 2100
$Comp
L power:GND #PWR0102
U 1 1 61F786E7
P 6900 4100
F 0 "#PWR0102" H 6900 3850 50  0001 C CNN
F 1 "GND" H 6905 3927 50  0000 C CNN
F 2 "" H 6900 4100 50  0001 C CNN
F 3 "" H 6900 4100 50  0001 C CNN
	1    6900 4100
	1    0    0    -1  
$EndComp
Wire Wire Line
	6900 4100 6900 4000
Connection ~ 6900 4000
Wire Wire Line
	6900 4000 6700 4000
Wire Wire Line
	4900 4300 4900 4800
$Comp
L Connector:Conn_01x03_Female BlinkerLinks_Rechts1
U 1 1 61F914EC
P 5200 5100
F 0 "BlinkerLinks_Rechts1" H 5100 5300 50  0000 L CNN
F 1 "Conn_01x03_Female" H 4600 4900 50  0000 L CNN
F 2 "Connector_PinHeader_2.54mm:PinHeader_1x03_P2.54mm_Vertical" H 5200 5100 50  0001 C CNN
F 3 "~" H 5200 5100 50  0001 C CNN
	1    5200 5100
	-1   0    0    -1  
$EndComp
Wire Wire Line
	5400 5200 6200 5200
Connection ~ 6200 5200
Wire Wire Line
	6200 5200 6200 3500
Wire Wire Line
	6100 4900 5700 4900
Wire Wire Line
	5700 4900 5700 5000
Wire Wire Line
	5700 5000 5400 5000
Connection ~ 6100 4900
Wire Wire Line
	5400 5100 5500 5100
Wire Wire Line
	5500 5100 5500 4800
Wire Wire Line
	5500 4800 4900 4800
Connection ~ 4900 4800
Wire Wire Line
	4900 4800 4900 5600
$EndSCHEMATC
